%YAML 1.1
%TAG !u! tag:unity3d.com,2011:
--- !u!134 &13400000
PhysicMaterial:
  m_ObjectHideFlags: 0
  m_CorrespondingSourceObject: {fileID: 0}
  m_PrefabInternal: {fileID: 0}
  m_Name: BoxPhysics
  dynamicFriction: 0.333
  staticFriction: 0.333
  bounciness: 0.333
  frictionCombine: 1
  bounceCombine: 3
